<define-tag pagetitle>DLA-1166-1 tomcat7</define-tag>
<define-tag report_date>2017-11-7</define-tag>
<define-tag secrefs>CVE-2017-12617</define-tag>
<define-tag packages>tomcat7</define-tag>
<define-tag isvulnerable>yes</define-tag>
<define-tag fixed>yes</define-tag>
<define-tag fixed-section>no</define-tag>

#use wml::debian::security

