<define-tag pagetitle>DLA-997-1 libffi</define-tag>
<define-tag report_date>2017-6-21</define-tag>
<define-tag secrefs>CVE-2017-1000376</define-tag>
<define-tag packages>libffi</define-tag>
<define-tag isvulnerable>yes</define-tag>
<define-tag fixed>yes</define-tag>
<define-tag fixed-section>no</define-tag>

#use wml::debian::security

