<define-tag pagetitle>DLA-1479-1 twitter-bootstrap3</define-tag>
<define-tag report_date>2018-8-27</define-tag>
<define-tag secrefs>CVE-2018-14040 Bug#907414</define-tag>
<define-tag packages>twitter-bootstrap3</define-tag>
<define-tag isvulnerable>yes</define-tag>
<define-tag fixed>yes</define-tag>
<define-tag fixed-section>no</define-tag>

#use wml::debian::security

