<define-tag pagetitle>DLA-1348-1 patch</define-tag>
<define-tag report_date>2018-4-16</define-tag>
<define-tag secrefs>CVE-2018-1000156 Bug##894993</define-tag>
<define-tag packages>patch</define-tag>
<define-tag isvulnerable>yes</define-tag>
<define-tag fixed>yes</define-tag>
<define-tag fixed-section>no</define-tag>

#use wml::debian::security

