<define-tag pagetitle>DLA-1234-1 gdk-pixbuf</define-tag>
<define-tag report_date>2018-1-8</define-tag>
<define-tag secrefs>CVE-2017-1000422</define-tag>
<define-tag packages>gdk-pixbuf</define-tag>
<define-tag isvulnerable>yes</define-tag>
<define-tag fixed>yes</define-tag>
<define-tag fixed-section>no</define-tag>

#use wml::debian::security

