<define-tag pagetitle>DSA-4441-1 symfony</define-tag>
<define-tag report_date>2019-5-10</define-tag>
<define-tag secrefs>CVE-2018-14773 CVE-2018-19789 CVE-2018-19790 CVE-2019-10909 CVE-2019-10910 CVE-2019-10911 CVE-2019-10912 CVE-2019-10913</define-tag>
<define-tag packages>symfony</define-tag>
<define-tag isvulnerable>yes</define-tag>
<define-tag fixed>yes</define-tag>
<define-tag fixed-section>no</define-tag>

#use wml::debian::security



</dl>
