<define-tag pagetitle>DSA-4386-1 curl</define-tag>
<define-tag report_date>2019-2-06</define-tag>
<define-tag secrefs>CVE-2018-16890 CVE-2019-3822 CVE-2019-3823</define-tag>
<define-tag packages>curl</define-tag>
<define-tag isvulnerable>yes</define-tag>
<define-tag fixed>yes</define-tag>
<define-tag fixed-section>no</define-tag>

#use wml::debian::security



</dl>
