<define-tag pagetitle>DLA-1841-1 gpac</define-tag>
<define-tag report_date>2019-6-30</define-tag>
<define-tag secrefs>CVE-2019-12481 CVE-2019-12482 CVE-2019-12483</define-tag>
<define-tag packages>gpac</define-tag>
<define-tag isvulnerable>yes</define-tag>
<define-tag fixed>yes</define-tag>
<define-tag fixed-section>no</define-tag>

#use wml::debian::security

